{
    "accidentProb": 0.10,
    "breakdownProb": 0.05,
    "numInitialBackupVehicles": 1,
    "numRoutes": 2,
    "numVehicles": 3,
    "routes": [
        {
            "name": "Express1",
            "numStops": 4,
            "timeBetweenStops": 2,
            "vehicles": [
                "Bus11",
                "Bus12",
                "Bus13",
                "Bus14"
            ]
        },
        {
            "name": "Express2",
            "numStops": 6,
            "timeBetweenStops": 3,
            "vehicles": [
                "Bus21",
                "Bus22",
                "Bus23",
                "Bus24"
            ]
        }
    ]
}
